Interactions and scaling of regression inputs
…
  nace_division    size  n_firms  vacancies
0            84   Large     3338          2
1            84   Large     3338          1
2            84   Large     3338          2
3            84  Medium     3338          0
4            84  Medium     3338          0

using CSV, DataFrames, GLM, Statistics

df = CSV.read("../../data/polish-jvs.csv", DataFrame,
              types = Dict(:id => String, :woj=> String, :public=> String,
                           :size => String, :nace_division => String, :nace => String))

57480×7 DataFrame
   Row │ id      woj     public  size    nace    nace_division  vacancies
       │ String  String  String  String  String  String         Int64
───────┼──────────────────────────────────────────────────────────────────
     1 │ 27350   14      1       Large   O       84                     2
     2 │ 26705   14      1       Large   O       84                     1
     3 │ 257456  24      1       Large   O       84                     2
     4 │ 183657  16      1       Medium  O       84                     0
     5 │ 200042  18      1       Medium  O       84                     0
     6 │ 26050   14      1       Large   R       91                     4
     7 │ 27351   14      1       Large   R       91                     2
     8 │ 26707   14      1       Large   R       91                     0
   ⋮   │   ⋮       ⋮       ⋮       ⋮       ⋮           ⋮            ⋮
 57474 │ 12042   08      1       Medium  R       91                     0
 57475 │ 203343  08      0       Small   A       01                     0
 57476 │ 244800  08      1       Medium  P       85                     0
 57477 │ 62309   08      1       Medium  R       93                     0
 57478 │ 106708  08      0       Medium  B       08                     0
 57479 │ 62264   08      0       Medium  B       08                     0
 57480 │ 255865  08      0       Small   C       23                     0
                                                        57465 rows omitted

nace_counts = combine(groupby(df, :nace_division), nrow => :n_firms)

84×2 DataFrame
 Row │ nace_division  n_firms
     │ String         Int64
─────┼────────────────────────
   1 │ 84                3338
   2 │ 91                1132
   3 │ 85               10071
   4 │ 62                1039
   5 │ 01                 923
   6 │ 72                 272
   7 │ 02                 867
   8 │ 64                1459
  ⋮  │       ⋮           ⋮
  78 │ 75                  39
  79 │ 06                   9
  80 │ 39                  68
  81 │ 51                   8
  82 │ 09                  91
  83 │ 53                  26
  84 │ 07                  11
               69 rows omitted

df = leftjoin(df, nace_counts, on = :nace_division)

57480×8 DataFrame
   Row │ id      woj     public  size    nace    nace_division  vacancies  n_f ⋯
       │ String  String  String  String  String  String         Int64      Int ⋯
───────┼────────────────────────────────────────────────────────────────────────
     1 │ 27350   14      1       Large   O       84                     2      ⋯
     2 │ 26705   14      1       Large   O       84                     1
     3 │ 257456  24      1       Large   O       84                     2
     4 │ 183657  16      1       Medium  O       84                     0
     5 │ 200042  18      1       Medium  O       84                     0      ⋯
     6 │ 26050   14      1       Large   R       91                     4
     7 │ 27351   14      1       Large   R       91                     2
     8 │ 26707   14      1       Large   R       91                     0
   ⋮   │   ⋮       ⋮       ⋮       ⋮       ⋮           ⋮            ⋮          ⋱
 57474 │ 12042   08      1       Medium  R       91                     0      ⋯
 57475 │ 203343  08      0       Small   A       01                     0
 57476 │ 244800  08      1       Medium  P       85                     0    1
 57477 │ 62309   08      1       Medium  R       93                     0
 57478 │ 106708  08      0       Medium  B       08                     0      ⋯
 57479 │ 62264   08      0       Medium  B       08                     0
 57480 │ 255865  08      0       Small   C       23                     0
                                                 1 column and 57465 rows omitted
…
